# cube.obj with materials and documentation
#
# v1 is origin: back lower left (bll)
# v2=fll, v3=bul, v4=ful, v5=blr, v6=flr, v7=
v  -0.5 -0.5 0.99999
v  0.5 -0.5 0.99999
v  -0.5 -0.5 -1e-05
v  0.5 -0.5 -1e-05
v  -0.5 0.5 0.99999
v  0.5 0.5 0.99999
v  -0.5 0.5 -1e-05
v  0.5 0.5 -1e-05
# normals. one for each side of the cube.
vn  0.0  0.0  1.0
vn  0.0  0.0 -1.0
vn  0.0  1.0  0.0
vn  0.0 -1.0  0.0
vn  1.0  0.0  0.0
vn -1.0  0.0  0.0
# texture coordinates
vt 0.0000 0.6666
vt 0.0000 0.3333
vt 0.2500 1.0000
vt 0.2500 0.6666
vt 0.2500 0.3333
vt 0.2500 0.0000
vt 0.5000 1.0000
vt 0.5000 0.6666
vt 0.5000 0.3333
vt 0.5000 0.0000
vt 0.7500 0.6666
vt 0.7500 0.3333
vt 1.0000 0.6666
vt 1.0000 0.3333
# remember, syntax is v/vt/vn
f  1/4/2  7/9/2  5/8/2
f  1/4/2  3/5/2  7/9/2
f  1/4/6  4/2/6  3/5/6
f  1/4/6  2/1/6  4/2/6
f  3/5/3  8/10/3 7/9/3
f  3/5/3  4/6/3  8/10/3
f  5/8/5  7/9/5  8/12/5
f  5/8/5  8/12/5  6/11/5
f  1/4/4  5/8/4  6/7/4
f  1/4/4  6/7/4  2/3/4
f  2/13/1  6/11/1  8/12/1
f  2/13/1  8/12/1  4/14/1
